Generating and polishing Sankey diagrams in R
…
Two additional columns were added, which contain an index for both the source and the target. The match function is used to match the position of the values that are being matched. As I understand it networkD3 uses an index system starting from 0, whereas base R starts from 1, hence the -1 is needed to generate an index system suitable for the function networkD3::sankeyNetwork().

# ID mapping
links$IDsource <- match(links$source, nodes$name) - 1
links$IDtarget <- match(links$target, nodes$name) - 1

links

# A tibble: 75 × 5
   source           target                 value IDsource IDtarget
   <chr>            <chr>                  <dbl>    <dbl>    <dbl>
 1 Aminoglycosides  Enzymatic inactivation    14        0        7
 2 Aminoglycosides  Target alteration          8        0        8
 3 Aminoglycosides  Efflux pump                2        0        9
 4 Fluoroquinolones Enzymatic inactivation     2        1        7
 5 Fluoroquinolones Target alteration          8        1        8
 6 Fluoroquinolones Target protection          2        1       10
 7 Fluoroquinolones Efflux pump                6        1        9
 8 Tetracyclines    Enzymatic inactivation     2        2        7
 9 Tetracyclines    Target alteration          4        2        8
10 Tetracyclines    Target protection          4        2       10
# ℹ 65 more rows
…
